<svg xmlns="http://www.w3.org/2000/svg" viewBox="0 0 1440 368" preserveAspectRatio="none">
  <path fill="#00ADA8" d="M679.184,113.612 C603.395,142.71 486,126.58 393.826,90.4221 C219.205,21.9209 70.7425,103.218 -2.00198e-05,138.58 L-2.00198e-05,367.58 L1440,367.58 L1440,0.580196 C1415.5,6.080196 1360.3,22.3002 1305.96,53.2294 C1237.21,92.3648 1110.79,171.203 952.755,113.612 C823.002,66.3268 754.974,84.5133 679.184,113.612 Z"/>
</svg>
