<svg xmlns="http://www.w3.org/2000/svg" width="18" height="17" viewBox="0 0 18 17">
  <g fill="#A3A5A6" transform="translate(0 -1)">
    <rect width="22" height="3" x="-2" y="8" rx="1" transform="rotate(135 9 9.5)"/>
    <rect width="22" height="3" x="-2" y="8" rx="1" transform="rotate(45 9 9.5)"/>
  </g>
</svg>
